DGCI_y,hueY,satY,briY,DGCI_g,hueG,satG,briG,DGCI_l,hue_l,sat_l,bri_l,Correct_DGCI_l,max_DGCI, std_DGCI, Corrected_hue_l,Slope,Slope_hue,Yintercept,Yintercept_hue,Red,Green,Blue,c1,c2,c3,c4,c5,canopy,k
0.031060272,61.38262465,0.944032244,0.985830684,0.638347131,111.407133,0.324439851,0.617304305,0.380811816,82.41136046,0.67631455,0.555318694,0.337092692,0.807293984,0.124728961,65.67390221,0.912912888,0.81959826,-0.010555323,-0.309092379,111.1540399,141.570004,49.4370302,111799,518254,215358,31854,20,877285,101
0.03153635,60.71994741,0.926055549,0.991334524,0.680272857,115.8433983,0.300541479,0.589363256,0.419597632,85.92800647,0.641483944,0.532263098,0.349431059,0.756444086,0.130524391,91.88151642,0.854584249,0.743785074,-0.009150468,4.837409442,105.3983093,135.6992599,52.43622732,128239,468956,288414,32496,0,918105,102
0.017756746,60.32234734,0.954828244,0.997273974,0.695507267,118.3607702,0.300994453,0.585163249,0.43480348,86.63714269,0.612933628,0.528031137,0.358944274,0.736455253,0.121910602,110.9337447,0.818000109,0.706428569,0.00327498,7.386570463,104.6528179,134.514246,55.63073681,74687,431763,255089,26926,0,788465,103
0.022417275,60.87229542,0.956243389,0.991043044,0.664276827,113.8932854,0.316780878,0.588610065,0.393985728,81.97808112,0.631715761,0.553394326,0.33873867,0.764455671,0.117241524,89.45886196,0.863740359,0.773278659,-0.001562705,2.928753053,114.2045132,141.0549489,56.87868157,64002,364330,151881,16214,0,596427,104
0.042761408,62.21906919,0.931743171,0.976957093,0.650878427,111.2122252,0.325007186,0.57589462,0.456858081,89.83229927,0.647442486,0.479452113,0.395318123,0.791405943,0.096581101,66.19081635,0.91166664,0.836851579,-0.021184149,-2.068126299,87.19374347,122.2421237,48.38031687,15681,639835,531050,35235,0,1221801,105
-0.0052627,53.3703166,0.915310647,0.989982729,0.732341423,115.6886326,0.258501433,0.472618175,0.382292198,74.17393501,0.642326617,0.453401111,0.309095058,0.654750457,0.086741777,192.4127658,0.751622697,0.657912515,0.021755565,14.88700076,100.4202148,115.1851768,44.05421473,35519,426327,87600,828,0,550274,106
0.015854499,60.23889552,0.958053522,0.998364573,0.713848718,122.5147668,0.313300298,0.587066327,0.441096906,89.15713608,0.628736407,0.534039015,0.355559804,0.71663832,0.09738636,106.7151702,0.794275919,0.658360922,0.005207153,10.34106521,99.43816385,136.1741896,54.44413075,39219,765812,316786,21403,0,1143220,107
0.020190465,60.27636984,0.94723374,0.99680103,0.690453436,115.9088722,0.306029215,0.554425013,0.374932514,77.36025663,0.615298153,0.552679852,0.311220643,0.727845409,0.113768193,102.2323815,0.827138039,0.736979253,0.001099699,5.57756601,120.738422,140.6586933,57.53345042,109919,403188,130758,10898,0,654763,108
0.022848507,60.84372955,0.95309186,0.992424779,0.648101114,112.875033,0.313861986,0.623085221,0.363776497,78.23385038,0.609492116,0.605349722,0.320094585,0.776417535,0.11688084,77.80523249,0.886681628,0.787987179,-0.002459351,2.055921202,130.0755132,154.1896683,62.00640407,101339,411212,150168,12718,0,675437,109
0.023482106,60.38211362,0.9415178,0.994404441,0.696777543,118.7637243,0.307406579,0.581656198,0.439943485,86.85619669,0.613559945,0.514476787,0.36071958,0.732874411,0.096368477,99.38067241,0.82341268,0.702275931,-0.001535464,7.595094963,99.58398879,131.1794576,54.75252256,52215,664118,314643,19417,0,1050393,110
0.012701292,60.19340629,0.965948459,0.999171102,0.739022741,126.464027,0.319049418,0.571616142,0.410642919,87.03681674,0.648843505,0.570144875,0.321548207,0.682712144,0.085926622,121.8734724,0.763298401,0.618675359,0.008105124,12.75982278,107.1844242,145.375028,55.30271963,63131,764276,163694,4614,0,995715,111
-0.029524368,53.43636885,0.989803881,0.989375371,0.767771458,123.470144,0.323163905,0.431357453,0.45007413,86.49074097,0.715594067,0.376058447,0.351289025,0.633287725,0.077843031,137.8136922,0.695350435,0.585431814,0.038329782,18.71664966,70.28867954,95.87429366,34.26126684,2711,840734,294782,1445,0,1139672,112
0.022146626,59.00852349,0.934134662,0.982900851,0.670567433,111.2505436,0.308810814,0.533662613,0.440083698,86.01421468,0.679640846,0.434269527,0.375136332,0.749379881,0.094323985,81.03701936,0.855000325,0.784808856,-0.001135373,3.689588184,82.07953817,110.7144504,40.32515472,24772,868630,533366,20574,0,1447342,113
0.004973112,60.32840947,0.99109208,0.999462075,0.700955663,118.7508956,0.323176415,0.553138188,0.506895171,94.84763685,0.612625218,0.447812675,0.417616905,0.73413237,0.085296944,86.08795089,0.796571694,0.701784582,0.01383856,7.662452349,78.62907703,114.1766332,49.30615893,571,939620,1075781,67243,0,2083215,114
0.009303314,60.102393,0.978146766,0.995649842,0.66647539,112.6665255,0.311265501,0.567083753,0.445287219,87.42574827,0.624359566,0.497349349,0.385602415,0.75116128,0.103635927,76.76522857,0.843614664,0.779999556,0.009951588,3.120160149,95.26327603,126.8025065,50.87273525,65681,1032038,775793,58455,0,1931967,115
-0.025639015,54.23523617,0.988890561,0.991947086,0.739729079,119.140284,0.309268633,0.45721553,0.483124594,89.12455613,0.642992222,0.393241122,0.386326656,0.672766811,0.087089883,106.87283,0.724357345,0.631692008,0.036371809,15.74003473,73.24561967,100.2691913,39.14863415,21624,892941,725233,12343,0,1652141,116
0.007238765,58.48066087,0.959862977,0.993098408,0.748976633,121.3658587,0.27872886,0.497105553,0.49153309,89.16135884,0.589940134,0.421901994,0.379777978,0.680718203,0.096220045,103.4686516,0.747433864,0.651981729,0.012389502,11.87167759,81.7670713,107.5610016,47.54141956,36911,768348,573494,11275,0,1390028,117
0.006273828,60.32073142,0.987108981,0.999415058,0.716119227,121.3308046,0.344032734,0.529789663,0.385473325,80.48126553,0.680170156,0.508230163,0.313960547,0.702067509,0.111490681,95.18771626,0.781015135,0.672020174,0.012900045,9.463251587,105.1095086,129.3127706,46.09790905,209238,730565,269686,12691,0,1222180,118
-0.021332012,55.05926304,0.990869964,0.990780456,0.71446651,115.6030975,0.30159103,0.481727731,0.460704692,87.18194842,0.679469922,0.391596681,0.380998812,0.689532633,0.090117522,88.75582003,0.753467129,0.677195298,0.03387297,12.71412596,73.18933704,99.85045018,35.93467156,13350,1285934,956936,14963,0,2271183,119
0.012963687,60.23279442,0.966223294,0.998765553,0.716040005,121.0959436,0.344955111,0.5251906,0.337821934,75.76394375,0.700438341,0.551142217,0.273961967,0.707732945,0.10306815,93.85195831,0.788534595,0.673642434,0.007577685,9.424633736,119.9864943,140.3486208,49.19616766,307538,706273,148185,6540,0,1168536,120
0.014328852,60.21632853,0.961653551,0.998965368,0.725206475,121.475936,0.34139346,0.507586047,0.378047523,81.13203393,0.71171949,0.507505058,0.301457305,0.691014407,0.09195709,102.1015314,0.779881068,0.669282774,0.006625199,9.698248597,101.6696374,129.3368759,44.19063265,145617,768844,160344,2203,0,1077008,121
0.008003871,60.29645384,0.981778239,0.999151045,0.707693088,119.899285,0.3537575,0.521484654,0.429655902,86.7580585,0.7029446,0.454435022,0.351896739,0.707470202,0.093885407,85.62600287,0.792351785,0.687886786,0.011458118,8.522866162,83.9746864,115.8632219,39.74463559,74995,1164219,490764,13737,0,1743715,122
0.017808902,59.14199156,0.947594709,0.984678446,0.663205268,113.3800343,0.365597797,0.534453638,0.370101653,79.5529514,0.67521375,0.542513726,0.320421942,0.762454539,0.117205809,80.59048269,0.859007006,0.755926983,0.002502029,5.292972761,113.507853,138.161487,50.36953442,215832,815913,321712,20208,0,1373665,123
-0.001819856,55.22964903,0.933294825,0.992658893,0.738775351,117.1675794,0.24316719,0.493299746,0.541599139,95.74043605,0.604599677,0.366332907,0.424596436,0.680598094,0.074789686,101.6900931,0.748587075,0.661953019,0.019162321,13.44056707,63.36879178,93.41287656,40.27703002,73,749325,1074855,37921,0,1862174,124
-0.026472428,54.19572093,0.989060947,0.993618352,0.691887555,111.2937556,0.318414023,0.460819238,0.519910527,90.74192577,0.593596804,0.359162969,0.439475368,0.718429886,0.068125579,97.95283723,0.771757911,0.718063244,0.038230306,11.08404481,66.01765289,91.58235842,39.66511066,0,533817,1231207,29146,0,1794170,125
0.019359979,60.51950078,0.961370535,0.989207873,0.647788937,109.3122842,0.299039292,0.5794653,0.397356137,81.92703518,0.681141512,0.492807097,0.351268194,0.788038785,0.105944739,66.4186863,0.882199958,0.840288198,0.000720627,-0.853822235,98.41989042,125.6278909,44.09679894,149311,1114184,587963,18644,0,1870102,126
-0.016761408,55.45226383,0.982020928,0.992467692,0.75399426,121.1053853,0.274881224,0.481559085,0.511088255,92.20062362,0.661003108,0.342467007,0.397479146,0.658870136,0.071148944,104.6381734,0.719294095,0.624494298,0.029856382,15.37037741,59.52825102,87.32718581,33.19451659,110,937288,791990,4428,0,1733816,127
0.012070876,60.02649808,0.966230555,0.997998452,0.735105249,120.9536806,0.304183423,0.506395507,0.548762554,97.71535645,0.601114175,0.381279679,0.429318286,0.7007763,0.084049708,98.21699053,0.766768525,0.672934449,0.008544432,9.60610156,65.73643375,97.22156931,45.07279916,1384,582525,954389,32610,0,1570908,128
-0.02128194,54.39964893,0.983617543,0.986889093,0.731992365,119.342737,0.32831976,0.464748762,0.465457794,88.65211616,0.691171697,0.390369649,0.376034055,0.682044036,0.085024613,112.6281393,0.735986873,0.631321996,0.033463229,15.65630503,71.46266884,99.52488035,36.89241927,11748,896017,551555,7500,0,1466820,129
0.006494001,59.75223359,0.981478206,0.994910351,0.759545937,126.2830788,0.331006851,0.49507332,0.557599356,100.3708392,0.611144844,0.389136305,0.423526079,0.672499656,0.079424811,107.2876555,0.736204203,0.61625551,0.013019089,13.17735679,64.16804468,99.21897924,45.23836807,437,629238,875657,34298,0,1539630,130
0.008896256,60.07404102,0.977069845,0.997475403,0.722074132,118.804154,0.286827377,0.52701946,0.547692081,95.03741899,0.533920596,0.407012571,0.436641379,0.693898728,0.069987298,87.40080541,0.777365674,0.698108652,0.010884356,8.061792201,74.18956488,103.7865156,50.9225694,28,630844,1367639,34101,0,2032612,131
0.003130637,54.68778281,0.909462445,0.992608691,0.75614608,119.1584687,0.243223223,0.474313015,0.527177057,92.59019219,0.628300797,0.333387924,0.403623873,0.659327735,0.069341914,103.4610213,0.736239881,0.635947942,0.0154951,15.22141707,58.69146901,85.0122947,34.64152202,635,877480,929177,5278,0,1812570,132
-0.015965863,55.19438913,0.974617247,0.993186827,0.736029871,117.2624893,0.285221077,0.461064131,0.542272153,92.58663384,0.57598949,0.340410549,0.429354403,0.687328227,0.062967207,98.54072441,0.737238225,0.660564765,0.029570644,13.54053134,61.83822971,86.80120872,39.79534117,1,650286,1257668,14901,0,1922856,133
0.011025743,59.87138579,0.967222978,0.997556223,0.731335917,119.7563134,0.304073932,0.497856874,0.478222798,91.25212013,0.686908462,0.399502284,0.377386823,0.695547618,0.094038682,100.131313,0.769668429,0.684646398,0.009313834,9.009271374,70.5055811,101.8667741,37.57200761,22434,735444,498535,13640,0,1270053,134
0.022088313,57.48359896,0.899657147,0.992137896,0.738234494,117.8036576,0.250279651,0.498411161,0.510039362,90.73497916,0.595700216,0.386495469,0.395544193,0.682891016,0.070503302,98.02403141,0.774143624,0.679707563,0.000700473,10.92796307,71.20495582,98.55402596,42.64228506,2346,856620,730715,6163,0,1595844,135
0.023013474,59.46635067,0.932155691,0.989909732,0.715410768,115.4624579,0.256624613,0.521517383,0.418243341,83.17744598,0.680485527,0.451437685,0.33425912,0.679120304,0.088985344,84.89776823,0.80069637,0.732193754,-0.000626805,6.459109463,88.5580466,115.0954256,40.64226202,64497,1046207,311958,6242,0,1428904,136
0.002609131,58.14841475,0.969874936,0.991437918,0.736844479,120.5548684,0.328246924,0.470467444,0.474257538,91.04615128,0.70650073,0.388318272,0.373928151,0.688842825,0.080938766,104.7918592,0.755071247,0.656983335,0.01582992,11.79746057,67.50357912,99.01333284,36.62805592,21945,876867,485357,8257,0,1392426,137
0.024756366,60.09934454,0.935919174,0.99146747,0.704284417,119.4900006,0.276649816,0.601996943,0.439775655,87.07872349,0.651382588,0.480710924,0.356397787,0.728366564,0.086932686,92.3876979,0.81586036,0.690344285,-0.002397738,8.510760941,89.73002289,122.5776767,46.0251679,33732,997206,353425,15510,0,1399873,138
0.014089487,58.71743873,0.942999052,0.993356465,0.722117335,116.8487919,0.263939511,0.51718835,0.432172339,85.31326642,0.689126468,0.436319064,0.345167255,0.69443493,0.081895334,91.702269,0.783020049,0.705299253,0.006767649,8.586634328,82.08614111,111.2585313,38.24344688,30352,1069142,341396,4722,0,1445612,139
0.016494341,59.75879155,0.949555415,0.99694142,0.677392518,111.3862899,0.313102142,0.51115847,0.3418528,76.93816475,0.750630003,0.506982874,0.290729683,0.742882632,0.092994227,73.77591521,0.83885842,0.79415043,0.003963583,2.542530022,105.2188916,129.2239162,37.12855492,175395,746278,139925,3202,0,1064800,140
0.01958021,58.70481708,0.929793386,0.989879603,0.770740585,125.4003646,0.296088425,0.481695896,0.443206362,87.9788012,0.706463868,0.430541391,0.330460714,0.651782241,0.085493542,111.5279176,0.738058101,0.61473369,0.003348668,13.91217119,77.37160018,109.772431,37.48234622,62004,960023,261213,2379,0,1285619,201
0.020226914,58.51974691,0.921403476,0.993244897,0.768124821,122.7205336,0.239707798,0.501259964,0.425337018,84.82863517,0.698868475,0.439141002,0.318099064,0.633272915,0.08308653,101.0603521,0.741277646,0.638621458,0.002806241,12.62803388,82.78966622,111.9719244,36.52296107,89962,1094590,244705,455,0,1429712,202
0.00227642,55.18334084,0.920255325,0.992637762,0.797098183,129.2430175,0.28542983,0.477325914,0.457066609,88.42884038,0.716210772,0.386548026,0.33502292,0.629024309,0.07839004,124.4625625,0.697514872,0.553607602,0.016212163,19.45008302,68.76706033,98.56263241,32.6025532,29403,1057067,280353,576,0,1367399,203
-0.021548294,53.1344302,0.961924016,0.988294702,0.752234845,118.2065083,0.249235309,0.464168626,0.470166265,88.95830401,0.70943535,0.362739831,0.370103556,0.639905323,0.060782523,111.7995694,0.716479815,0.63007055,0.033238917,16.52156035,62.33622943,92.49755525,29.89094975,0,1123995,447924,1247,0,1573166,204
-0.01618451,52.83423958,0.944409708,0.984714482,0.738712394,115.7764917,0.23728814,0.476182874,0.48207489,88.58034197,0.666310628,0.363879431,0.383724154,0.674772479,0.064676958,97.22692688,0.734404919,0.651390737,0.029685984,15.58426576,65.01691059,92.78618842,33.37166398,22,1279508,811176,2263,0,2092969,205
0.002702457,52.56044289,0.884913682,0.982986329,0.798268701,126.6846791,0.26543089,0.451174326,0.503538923,91.31329132,0.651504868,0.359910757,0.366813974,0.64208643,0.074486489,122.9106709,0.696862146,0.55312543,0.01591676,20.92748245,63.28775381,91.77082929,34.39949025,7425,1031937,494368,624,0,1534354,206
0.022654825,57.71659185,0.901870664,0.992108058,0.719997999,114.4236888,0.241322767,0.505744716,0.429483497,83.73878073,0.685876382,0.42172487,0.341235898,0.675962133,0.096423096,91.58904233,0.795017462,0.72301356,-0.000210982,8.270121482,81.70264596,107.5161071,36.03798319,71620,956463,378364,7680,0,1414127,207
0.010024175,55.02391383,0.897004366,0.989988339,0.782201404,124.1216656,0.253497419,0.468592795,0.485649741,91.77823989,0.717432675,0.355328266,0.359284835,0.647773737,0.071242662,118.5937045,0.71796989,0.593362287,0.010602944,17.35088466,58.72477377,90.60591073,29.46294141,566,1064574,368460,2501,0,1436101,208
0.005891744,60.33079087,0.988493151,0.999344797,0.698464511,117.0345887,0.275044449,0.580138497,0.456752248,88.91993909,0.652369939,0.459497031,0.378710904,0.718627036,0.073306077,82.96063382,0.800493503,0.723055625,0.013083697,6.377482299,82.8243608,117.1662805,44.55901005,11172,1153760,640995,7707,0,1813634,209
-0.001502648,56.79934645,0.957579539,0.993584181,0.746339374,119.3390109,0.259751842,0.490213551,0.475452347,89.01977474,0.663337035,0.394173691,0.371382497,0.644018454,0.074024053,98.17502148,0.74133304,0.655583946,0.018913963,12.76326031,70.9006999,100.5074091,36.83168876,4481,1135021,559277,2905,0,1701684,210
0.013589211,51.77958698,0.84904878,0.973176703,0.82209585,128.6202818,0.232796483,0.444587331,0.450516305,86.9364045,0.699139677,0.39831013,0.31740469,0.586710772,0.063909749,128.1633648,0.685708656,0.533571438,0.00848176,22.37189133,71.31403987,101.5669472,31.89128099,19004,1276904,156333,0,0,1452241,211
-0.001813715,52.66652428,0.8937544,0.989462148,0.805538623,127.4053906,0.250770088,0.456037219,0.425425596,84.74036571,0.726189413,0.410056803,0.311180551,0.599037036,0.073129029,113.0372158,0.686689038,0.548576691,0.019045458,21.10837237,75.75760416,104.5572132,31.0539607,64728,1401560,217423,0,0,1683711,212
0.015215606,52.08324851,0.828959006,0.993448317,0.818183673,127.9835321,0.229543528,0.448964323,0.428140905,83.51359468,0.702194226,0.406095679,0.302899489,0.590382076,0.081711822,127.6004467,0.690438416,0.540182435,0.007294561,21.865544,78.13537642,103.4963639,31.98827867,132593,1079377,195163,0,0,1407133,213
0.020039408,54.85026535,0.860849973,0.993202893,0.82445465,132.7615189,0.276636935,0.462691097,0.42722475,84.65722057,0.676477902,0.453024942,0.298430627,0.59328708,0.092587678,133.9901614,0.68919629,0.526239768,0.003988915,21.13560907,87.47300968,115.5071092,38.02057369,196356,852748,205328,0,0,1254432,214
0.026676702,60.0978131,0.923503168,0.998096943,0.759784186,128.6245428,0.278349611,0.586040212,0.401628302,87.61086601,0.700701206,0.554758037,0.301350736,0.643896839,0.087202877,99.04035063,0.756232903,0.598306678,-0.0023738,14.04307711,99.01956162,141.4559182,43.75616932,175804,1197989,224385,771,0,1598949,215
-0.027730173,53.16742698,0.984728963,0.98458534,0.78469657,123.7362578,0.248677807,0.459503447,0.490989728,91.78986469,0.673881763,0.382997133,0.371774455,0.612547468,0.060025318,108.2874506,0.682399989,0.580993047,0.03672307,19.11009462,64.56441947,97.66383707,34.14696874,13,1248128,597680,25,0,1845846,216
0.005044017,51.29363947,0.856208165,0.983553776,0.810714205,125.4171612,0.20651198,0.451631426,0.488633001,90.95215999,0.669332913,0.380666413,0.350568591,0.600265,0.060114822,116.1114538,0.688122768,0.553130761,0.014329097,21.62791016,65.29049359,97.06915138,34.09853274,2465,1380701,361585,1,0,1744752,217
-0.01820194,53.88307353,0.96012711,0.992529936,0.779640072,122.7821186,0.249711067,0.457737362,0.458454339,86.28825244,0.641934155,0.420956111,0.349016253,0.617333088,0.079258049,116.8462667,0.694874413,0.595073559,0.030448063,17.93560766,79.62042494,107.3391771,39.34153461,18632,1049041,385673,272,0,1453618,218
0.006869706,55.02814408,0.903836546,0.99269007,0.769942228,121.8420351,0.229312541,0.49156136,0.405884705,85.54202785,0.756105171,0.451952403,0.30769894,0.640958343,0.081735607,106.8223262,0.726536449,0.613644848,0.012808908,16.2322629,81.04352262,115.2474623,29.8761213,95096,1266610,223888,413,0,1586007,219
0.044319142,60.14666006,0.872381365,0.997105544,0.760381977,126.3358176,0.25190661,0.572544419,0.389368063,86.8220256,0.722149174,0.556793219,0.284948513,0.639553927,0.0865921,89.78584982,0.774233731,0.619436801,-0.016513375,12.74294529,99.39060995,141.981607,40.82273966,311312,1390777,175719,950,0,1878758,220
0.028809264,60.120351,0.918650912,0.996927147,0.762308132,127.4149943,0.283452355,0.553206487,0.363360943,82.5330036,0.733263491,0.5528568,0.270663991,0.658663944,0.106122806,105.7918381,0.755829387,0.609260975,-0.003974888,13.37101632,107.4966185,140.9145827,39.57300057,386491,729026,161835,1370,0,1278722,221
0.005760472,55.93055463,0.922566896,0.992327597,0.775974679,122.9157042,0.235250463,0.485420569,0.397555746,81.83079991,0.700302827,0.471525552,0.299814143,0.621043933,0.072182104,106.6882529,0.719799758,0.612075964,0.013653613,15.76625185,91.67577727,120.189022,36.80333395,113054,1229066,136513,15,0,1478648,222
-0.012036669,53.11087261,0.940027845,0.981263371,0.807737225,127.5879704,0.244177554,0.459076945,0.446889431,86.96305631,0.681374098,0.427395035,0.328164396,0.595907514,0.068326439,107.6622238,0.676284039,0.550504802,0.025940207,20.76220959,77.72390508,108.9835044,35.56374701,28106,1533174,282121,0,0,1843401,223
0.001517131,53.6683834,0.896651515,0.993270147,0.810421666,127.8057694,0.245967108,0.45286405,0.452345548,87.16314008,0.66992997,0.42581383,0.326784884,0.596236511,0.076691227,125.9567062,0.685371359,0.553027322,0.016760202,20.31991768,78.37750561,108.5782753,36.8753778,55341,1072470,259485,0,0,1387296,224
0.009180071,55.1972989,0.899138511,0.993276257,0.808301315,128.4051755,0.244330849,0.470851465,0.39026523,80.16452039,0.692673382,0.476342416,0.282182425,0.60494859,0.084022806,163.1129142,0.69376206,0.560049026,0.011431215,19.08680649,95.80175416,121.2244284,39.13261054,149716,623278,84077,4,0,857075,225
0.060474104,60.1573772,0.823783013,0.99741763,0.818984192,135.9931403,0.25911377,0.55048599,0.304378966,72.11889512,0.68907851,0.605089964,0.196071664,0.587953541,0.085116021,141.9138001,0.73090656,0.540642018,-0.026400919,17.47639418,135.1258515,153.8503445,48.60847972,557123,317871,26376,0,0,901370,226
0.007247762,52.71863109,0.874420205,0.982480361,0.846785846,134.7893827,0.271566516,0.434565656,0.451179361,87.66593665,0.683146406,0.424569766,0.310956062,0.592888205,0.074567795,121.4487538,0.660363133,0.49956896,0.013013845,23.6634083,77.25706044,108.2558653,35.77495004,108847,1297155,211634,0,0,1617636,227
0.015968733,52.22469835,0.830335343,0.992170097,0.814451071,127.9136683,0.212024221,0.476517038,0.400729674,82.40269426,0.710705942,0.460599755,0.284946129,0.575576333,0.070762922,108.9172751,0.694317174,0.541690553,0.006712634,21.71037425,88.67255327,117.446703,34.95332785,198780,1478300,115807,0,0,1792887,228
0.052587709,59.84168076,0.843596158,0.996002062,0.823786266,135.7031374,0.233218342,0.557141816,0.471317982,92.47652092,0.612854008,0.514598869,0.318817243,0.605288053,0.076995863,102.2644623,0.718881012,0.540458907,-0.020004305,17.6580306,90.62916912,131.2182309,51.84148133,114408,1409260,269123,12,0,1792803,229
0.055516444,60.15859648,0.839102584,0.996991358,0.793774595,132.9867069,0.247720656,0.587400675,0.448407776,91.65798158,0.632741449,0.549673483,0.312844429,0.64783377,0.076581867,122.3008236,0.750956829,0.562969432,-0.023890453,16.13254908,96.41349758,140.1665863,52.57538007,84382,980968,145386,552,0,1211288,230
0.144784029,59.70331551,0.567994425,0.992708745,0.789637342,134.2689699,0.232225154,0.636678986,0.505906861,97.8676892,0.531433499,0.582185392,0.328268278,0.661356194,0.09273698,122.3603382,0.859730406,0.549851005,-0.106675232,17.17207198,102.4587053,148.448103,71.09094478,117988,906458,304275,1104,0,1329825,231
0.009591264,51.43246208,0.846003713,0.982430198,0.832301374,130.9728205,0.229742987,0.456233234,0.473972429,88.6959906,0.634562079,0.421869478,0.330732727,0.579555598,0.067600647,128.4976639,0.673870411,0.515461595,0.011336731,23.48854107,77.32290278,107.5731094,40.92600551,23387,1227642,255247,0,0,1506276,232
0.107787441,60.27926238,0.683156947,0.998135103,0.796420676,134.7890874,0.267556639,0.589666125,0.281999259,74.86664204,0.725397263,0.679552807,0.158053225,0.609775176,0.086402965,110.7141902,0.805072965,0.550263002,-0.068976755,16.83055214,143.6791001,172.9869615,48.38885117,982755,276170,25898,6,0,1284829,233
0.106544546,60.27494673,0.686680508,0.998268299,0.832330228,138.6845946,0.256360121,0.558059105,0.453104066,90.10015826,0.566918987,0.575563827,0.282523599,0.613291864,0.119519142,110.8291562,0.763861859,0.522894837,-0.063585315,18.48254159,111.299859,146.7645461,62.78935251,447078,790098,302625,42,0,1539843,234
0.010721405,53.74888007,0.885551231,0.978099221,0.830299192,134.8684264,0.301191952,0.455717579,0.383048895,81.78416605,0.723498027,0.491279222,0.269659389,0.604880779,0.074241501,125.3563685,0.676445859,0.50542689,0.01054755,22.83387073,95.41109001,125.2186068,36.86813059,258560,1097493,86591,1,0,1442645,235
0.064709075,60.12219764,0.810367989,0.997541412,0.804087494,132.284509,0.229524709,0.562954625,0.407139772,85.40236652,0.619148063,0.583651872,0.274561049,0.625905837,0.08625438,112.2102364,0.749819018,0.568163619,-0.030720095,15.84075459,113.0612801,148.7669597,57.23387556,278138,939358,102815,27,0,1320338,236
0.030753983,58.38063091,0.88828936,0.992459206,0.752947582,119.4933674,0.2256065,0.507106877,0.491999629,91.78051985,0.569775041,0.484123251,0.371880383,0.669944384,0.067761955,93.57435036,0.767661193,0.670891247,-0.005808639,10.83294574,88.62998931,123.4441354,55.89407532,9311,1171712,615219,836,0,1797078,237
0.115283068,60.30842216,0.661614414,0.997676753,0.767215227,129.374658,0.2502498,0.604348821,0.438226842,89.31154872,0.583145899,0.591217558,0.292429846,0.663560742,0.101025088,109.8981746,0.850395233,0.593633046,-0.080236171,14.19892763,111.5551027,150.7268183,64.07515046,248993,876808,198247,665,0,1324713,238
0.138521039,60.35152795,0.592773105,0.997522577,0.771037002,131.72126,0.264820725,0.617422602,0.440626689,92.89027863,0.565253588,0.661591177,0.282595487,0.664817298,0.1064265,113.0118188,0.876499617,0.574473223,-0.103613637,15.32966324,120.7199551,168.6598253,74.12307088,300340,862103,195426,1468,0,1359337,239
0.062175667,59.6062257,0.814641761,0.992268333,0.81260545,131.8557965,0.242641138,0.517139121,0.374687129,83.21151327,0.710926801,0.55216511,0.24867617,0.617917076,0.084286111,101.2492926,0.738776649,0.56747742,-0.028133931,16.17481283,105.8964492,140.7839286,43.63933483,490736,1019464,79001,5,0,1589206,240
0.102733027,60.21391764,0.697354182,0.99801203,0.826810714,137.4712721,0.23049196,0.580263767,0.378701607,83.75845755,0.65394839,0.606362128,0.229099124,0.593996686,0.101222127,105.329467,0.765663699,0.530693813,-0.06085895,18.04484648,119.4531232,154.5956832,54.53311197,667940,814278,91214,0,0,1573432,301
0.044693094,57.84657032,0.836751749,0.993278473,0.796762767,127.4481883,0.266030327,0.467817843,0.523541266,96.22813714,0.546731686,0.48660505,0.370790469,0.633187499,0.08716749,105.2627598,0.737165744,0.589066766,-0.015146218,15.9245079,87.31714721,124.0738813,58.22204597,42999,1037762,658161,1248,0,1740170,302
0.027309109,52.37780087,0.798053982,0.99298204,0.83506887,131.2183185,0.193868597,0.487896769,0.45539398,86.57649682,0.619981998,0.456887196,0.311612918,0.577428362,0.080734612,131.225469,0.686342681,0.520037174,-0.000943407,22.76159644,87.67306242,116.5025644,44.82614933,133990,1053376,214311,0,0,1401677,303
0.003859617,51.79256685,0.873509352,0.978121245,0.83072994,130.0976322,0.208165115,0.467938934,0.522276277,94.49025666,0.578290934,0.429762557,0.365387993,0.589264027,0.069584985,119.5429997,0.670479982,0.523593203,0.015212204,22.88176402,76.38191998,109.587852,48.69363661,13707,1177143,542680,0,0,1733530,304
0.043354528,59.85376834,0.871677653,0.995821569,0.809654299,134.5838939,0.245241115,0.568860886,0.493969627,95.98480388,0.609856442,0.508037218,0.343809508,0.621997898,0.093298812,106.3626201,0.723476661,0.548640855,-0.013565989,17.16177734,87.49582115,129.5467933,52.89687174,137995,1063700,494510,246,0,1696451,305
0.136067456,59.27709368,0.588058766,0.991690427,0.768993068,132.0328493,0.221639349,0.671928936,0.504228994,97.02427694,0.50468988,0.599830253,0.340284591,0.682853359,0.077352064,106.3676325,0.875932321,0.5635293,-0.101385883,16.5956209,108.2874809,152.9514631,78.11798288,60432,1279511,362884,1443,0,1704270,306
0.151119638,60.37483221,0.554909678,0.997978611,0.838539441,143.5756505,0.251328699,0.625980487,0.418062101,85.12502254,0.575695028,0.594366503,0.233087515,0.604239978,0.12015902,145.8801005,0.806494078,0.492783615,-0.104077093,20.24827193,120.1598784,151.0906199,64.49842025,410456,522327,92709,3,0,1025495,307
0.138549884,58.79178561,0.575815887,0.988397554,0.791182913,135.0762895,0.245989101,0.631733651,0.452721133,91.84859521,0.578347509,0.594434182,0.284682815,0.646469158,0.08270984,105.5151965,0.849481984,0.537461711,-0.09989563,18.40166629,108.5493117,151.5700513,66.50692432,263263,1351876,123730,246,0,1739115,308
0.053404943,56.1217804,0.781904035,0.993244142,0.87372443,141.3878188,0.248065095,0.48722526,0.336840522,71.55658095,0.664842632,0.525193247,0.20935547,0.55158871,0.068884163,163.7188934,0.675834243,0.480847953,-0.018292889,23.01395679,117.9473565,133.3523103,46.87223607,514220,410151,20387,0,0,944758,309
0.134185502,60.31922124,0.604923387,0.997840462,0.750725773,131.0283979,0.235355964,0.69627335,0.474646008,94.78178036,0.558246364,0.597610097,0.323945946,0.697348405,0.092635626,99.03196159,0.899211335,0.579839873,-0.102861124,15.02451043,106.1844544,152.3859157,69.04828773,169387,1274717,361440,4069,0,1809613,310
0.142283465,60.53827637,0.5835076,0.998613279,0.801068583,132.2379706,0.237431063,0.563329365,0.485130344,91.5978582,0.540666546,0.531234271,0.30632247,0.643302552,0.101798265,108.7461675,0.841549065,0.571829496,-0.101938517,15.38242795,100.5291394,135.4269878,62.9479047,236600,952785,258879,370,0,1448634,311
0.008341383,54.17714044,0.907062632,0.970865561,0.843082465,136.9935472,0.262936104,0.491042287,0.446950703,88.83370804,0.62577783,0.513984887,0.309105906,0.573164674,0.072863441,112.7097006,0.664158039,0.495070984,0.012260004,23.17846976,95.17219848,131.0631676,50.33945693,121694,1478989,189506,0,0,1790189,312
0.010125464,52.94081389,0.881677199,0.970293308,0.803625729,127.1841283,0.237502765,0.471355519,0.464694105,88.28684248,0.619843904,0.457558098,0.335396434,0.599565101,0.069054835,100.0036827,0.698676515,0.552238277,0.010725576,20.76405618,85.17608454,116.6759588,46.08490016,66597,1712676,371515,0,0,2150788,313
-0.015428987,53.09228527,0.950277239,0.980881144,0.813710769,129.5196519,0.277478686,0.440049871,0.355990958,74.98797037,0.702266322,0.482686287,0.266148021,0.591385913,0.074254879,139.702553,0.668644816,0.536457055,0.028116512,21.51826901,103.2966212,122.8655417,37.66000309,231371,848035,68905,0,0,1148311,314
0.027948768,60.17311337,0.921771644,0.997267274,0.781636999,127.2718563,0.259701467,0.516585142,0.316637707,72.60636188,0.714890223,0.55150734,0.23015458,0.596371925,0.083059789,112.7008136,0.735582669,0.611039764,-0.00275863,13.23183503,121.4728778,140.1282572,42.00324467,452256,530062,45554,0,0,1027872,315
0.042166267,55.67993544,0.808199019,0.993301104,0.8556122,138.5593769,0.235367776,0.507118571,0.452239848,88.75581281,0.628026584,0.495734144,0.297283595,0.589717633,0.094937886,135.7627445,0.681544989,0.494694454,-0.010938208,22.45544476,93.44725109,126.316333,48.63739859,246097,852508,199113,0,0,1297718,316
0.114288496,60.32557974,0.664796988,0.997763853,0.748728271,124.8007232,0.228748669,0.605078572,0.411676872,87.13148107,0.602251417,0.615304659,0.277670396,0.672290079,0.10430582,90.5760224,0.873841808,0.635903975,-0.082070066,11.63872408,118.309667,156.8843242,63.19547675,417891,1125422,212133,721,0,1756167,317
0.105867486,60.16007538,0.687549247,0.997516218,0.878641085,145.5048241,0.214401596,0.574755551,0.467488098,90.12891242,0.559940208,0.540230933,0.277232346,0.580078126,0.095647963,139.6710357,0.717415813,0.480404485,-0.058151008,21.09883,103.9514135,137.7282547,61.73601555,254628,791759,115782,0,0,1162169,318
0.165606968,60.40777118,0.511743667,0.998231616,0.783169184,134.9385701,0.252409791,0.647058824,0.469548166,95.81437909,0.563317052,0.625152993,0.2906551,0.657275274,0.093615555,106.2856176,0.897723314,0.550108151,-0.130869236,16.76919268,109.5480765,159.4070394,71.86365363,277602,1166082,216779,681,0,1661144,319
0.050385953,57.24493934,0.809784662,0.993139801,0.852260206,137.1090116,0.268426163,0.459943411,0.39439762,80.54281375,0.677210609,0.484768684,0.255642863,0.592331987,0.093982785,133.7399017,0.691380223,0.513372269,-0.017035852,20.61203558,99.29124929,123.4225018,41.20696653,398782,677647,107850,0,0,1184279,320
0.063268049,58.0350251,0.78761743,0.989828842,0.840207521,134.7319514,0.22866613,0.496243831,0.381998558,79.39379104,0.668937229,0.509084112,0.245236243,0.578474007,0.080902799,115.1385436,0.7135691,0.534571618,-0.027346124,18.97612273,104.7482075,129.7588615,43.80442964,461919,865240,58501,0,0,1385660,321
0.038548529,53.40091844,0.780819221,0.993550498,0.864895126,137.6071696,0.252115853,0.446651594,0.49523593,91.64528951,0.620014812,0.421911627,0.324193825,0.581372602,0.08269275,118.1259201,0.670904923,0.486899719,-0.008062398,23.99910783,76.33855264,107.575644,42.86016079,123016,1275139,335050,0,0,1733205,322
0.03093168,55.669141,0.841930596,0.99309338,0.851419004,137.6556882,0.259850366,0.48015409,0.451193784,85.95924475,0.589470146,0.490594185,0.301769421,0.601128677,0.094516291,139.7205055,0.675695996,0.500082043,-0.003100412,22.16086225,97.78356367,125.0306395,52.20608773,196500,806846,212764,1,0,1216111,323
0.107054359,60.10052788,0.683074676,0.99743771,0.828965692,138.1622389,0.252811056,0.56299585,0.481004367,95.07989843,0.579471799,0.562291168,0.304979152,0.62357771,0.076322582,105.7338885,0.767961348,0.525225484,-0.06441361,18.43367113,98.28669481,143.3809282,62.69578853,143992,1434365,175398,35,0,1753790,324
0.023303481,58.96382006,0.919516945,0.993302947,0.796978142,129.222927,0.253910085,0.508870938,0.409618307,83.04421318,0.646985589,0.511522541,0.294625583,0.620278978,0.094268987,113.25601,0.716580273,0.583554243,0.001101185,15.59141259,102.0993403,130.1681342,46.84018768,219711,877202,180378,52,0,1277343,325
-0.002407808,52.37469443,0.892906246,0.987228752,0.831983772,131.8587637,0.265440271,0.436254473,0.402308067,79.91951335,0.680382658,0.4454794,0.286707892,0.60280128,0.072562493,171.3887178,0.664436235,0.515826635,0.019399835,22.98373759,90.44460176,113.5515057,38.14408636,111687,758252,67389,6,0,937334,326
0.0155449,55.18335916,0.879959427,0.993128526,0.810783536,128.8546556,0.24124261,0.473984376,0.32085235,71.2976348,0.725323469,0.510398617,0.230644853,0.580402298,0.073051527,132.4271438,0.697149227,0.55652611,0.006962885,19.28901982,113.6191428,129.3667511,38.06970861,445403,628910,29689,0,0,1104002,327
0.026843564,53.55034001,0.83428232,0.977692654,0.856672493,138.7149586,0.272362444,0.469536053,0.425073015,84.55891665,0.656752887,0.47764917,0.283852917,0.586525096,0.073789827,118.6156306,0.668089507,0.481420579,-0.000133904,24.21976431,92.3721319,121.776837,43.3884367,242710,1296461,111107,0,0,1650278,328
0.015190648,57.27505461,0.916441188,0.992571113,0.827893304,136.6413296,0.258948025,0.534727555,0.390348516,83.8162036,0.69618643,0.530239984,0.27372081,0.608642607,0.088017635,117.4283457,0.682168313,0.516592218,0.007437422,20.41215251,102.3525729,135.1732254,43.26728518,332943,981212,147530,29,0,1461714,329
0.020804396,53.36859873,0.833592201,0.993471257,0.835931639,130.4774558,0.201796472,0.465032874,0.498008009,92.17878078,0.647120272,0.395207465,0.342364889,0.577252663,0.062069836,108.8790744,0.680139211,0.531715831,0.003650114,21.62307119,68.28466851,100.7767693,38.61711441,12118,1536368,368862,0,0,1917348,330
0.03480195,52.87429194,0.791067026,0.985765323,0.887350831,143.1811425,0.261087164,0.463212719,0.497521649,94.42467288,0.679002821,0.402218787,0.318699816,0.567996564,0.07546625,124.5052057,0.650285294,0.454007639,-0.004831196,25.99466757,66.43680331,102.5645673,35.542498,79935,1339597,270789,0,0,1690321,331
-0.002682793,53.90039876,0.913996328,0.992392031,0.785505162,124.5085543,0.24343775,0.475189335,0.445023696,85.27603134,0.650500326,0.436081038,0.332710264,0.612741361,0.071485945,117.0530638,0.703385527,0.580669466,0.019687038,18.70168423,83.0733298,111.1741977,40.13849074,14958,1178390,276629,2,0,1469979,332
0.010859128,60.22254199,0.972433455,0.998698193,0.717745605,120.1067469,0.303897847,0.544644453,0.345881808,79.98101365,0.728394886,0.568692908,0.280553044,0.671575905,0.093632442,93.96809204,0.784284349,0.684654661,0.009283356,8.768355939,113.3485318,144.8670312,41.89931543,262673,789340,134463,660,0,1187136,333
0.000137291,53.35312509,0.89544734,0.993359538,0.785241433,123.0047176,0.258251225,0.436103102,0.352077527,68.15571228,0.64342631,0.457357453,0.266322019,0.604102709,0.077396383,214.2014635,0.706148357,0.588644115,0.017703052,18.59399691,106.6879506,115.2578867,42.43195964,114068,409927,43004,2,0,567001,334
0.037281408,60.22370401,0.895201975,0.996682202,0.741634363,123.0847845,0.254398233,0.572111755,0.440672565,89.33648109,0.633854679,0.533236369,0.33531135,0.671573356,0.080710899,88.60424516,0.787105379,0.652231868,-0.011544396,10.72018101,96.54460972,135.9684704,50.71287397,97893,1389696,386471,1827,0,1875887,335
0.00100231,54.01200452,0.907299782,0.989893363,0.788687131,126.2145057,0.25483391,0.482679791,0.467893717,89.26402509,0.656931943,0.427528349,0.346414427,0.635502722,0.086388565,118.8530203,0.703834814,0.567847365,0.017094539,19.32942558,77.93282145,109.0024341,39.00199563,66131,1007148,431659,367,0,1505305,336
0.007193975,55.18151047,0.90480947,0.993300446,0.798171872,126.5851216,0.244938048,0.470298362,0.503986006,94.27709188,0.659903308,0.39943963,0.366003791,0.636885757,0.066578131,98.3182533,0.700904541,0.574200651,0.01275771,18.31474076,66.13747792,101.8566853,37.24409087,958,1530000,669330,93,0,2200381,337
0.002285083,52.91161163,0.885476726,0.989528218,0.839250473,133.9800221,0.268733619,0.446515331,0.506357215,93.06627927,0.657195542,0.374903955,0.351693842,0.582816797,0.060006264,128.2749811,0.662392982,0.5057457,0.016286377,23.24017993,62.96607475,95.59797299,34.85105134,3874,1189698,325612,0,0,1519184,338
0.004714311,53.12818271,0.885427572,0.985899206,0.797419409,126.289845,0.248628871,0.463943652,0.450324319,89.54795997,0.719568766,0.421983339,0.329449552,0.626880077,0.072078742,109.7899986,0.699377362,0.560402795,0.014502917,20.22681793,72.71159086,107.6030846,33.4847564,54419,1449538,297244,135,0,1801336,339
0.033697358,60.19120217,0.904782337,0.997312291,0.783826921,126.5888134,0.254167513,0.504165282,0.341287883,73.34681068,0.687702619,0.52223028,0.245131644,0.620157836,0.083405385,105.4252594,0.739072326,0.617492094,-0.007104785,12.83240853,114.3650399,132.2658449,43.31685646,405193,662779,64814,10,0,1132796,340
0.030327281,60.2335957,0.915034233,0.997877184,0.729181925,124.4325001,0.319082795,0.567246431,0.482410071,92.78682416,0.61677999,0.482773976,0.376436379,0.711621138,0.099347618,108.9195243,0.793298012,0.638640182,-0.006258572,11.53240546,87.4038838,123.0784786,51.50947546,38662,747017,418205,28822,0,1232706,401
0.017507518,60.42654147,0.958831356,0.995755115,0.685440916,117.4041877,0.314159632,0.58625408,0.391322205,83.22833827,0.647888359,0.565649551,0.328074741,0.732536148,0.108705445,96.35469069,0.830022875,0.719580445,0.00326836,6.518242401,113.4498267,144.2155145,54.60022265,103789,621753,202764,20586,0,948892,402
0.043977341,61.90900001,0.921970887,0.977913758,0.667239735,111.1042935,0.287567065,0.562451955,0.534129025,94.37263793,0.524986531,0.445620709,0.453796294,0.77556768,0.11320169,71.91002734,0.889512997,0.833413059,-0.021318416,-1.595769081,84.61426558,113.6286731,57.14606769,7402,402373,705536,141261,0,1256572,403
0.025065695,61.08373225,0.953915329,0.98894979,0.658583946,112.8748783,0.307807208,0.597688927,0.478596827,89.98145735,0.601350814,0.463059683,0.414690949,0.778898153,0.098368759,77.6700159,0.87511291,0.791641104,-0.004135313,1.643606791,86.40291332,118.0571823,51.01835248,5806,645788,634290,69554,0,1355438,404
0.011670336,60.27390232,0.970911834,0.998642197,0.691158873,118.6524886,0.318402424,0.585662435,0.495875497,94.53364609,0.626540371,0.461445904,0.41286677,0.745891636,0.085261998,97.0676823,0.815907804,0.702312314,0.008278082,7.668896202,79.91729204,117.6665752,48.91843362,1309,632023,653235,40539,0,1327106,405
0.037508488,61.88611813,0.938591567,0.980318271,0.636388371,110.9700462,0.326906055,0.613429601,0.441368313,90.72694247,0.678192069,0.510042902,0.391664432,0.79651808,0.091360625,69.45533015,0.925728206,0.83530397,-0.016922665,-1.693720141,88.88737351,130.0467532,46.78589247,9313,822626,548564,40041,0,1420544,406
0.015656049,60.43797387,0.964293754,0.996037665,0.684186225,118.4487562,0.305884264,0.615702998,0.420558859,85.62969087,0.615952266,0.550251829,0.353578587,0.747743749,0.114517396,103.2294447,0.829281937,0.706765162,0.004816722,7.284545593,109.3411194,140.2493936,57.23305769,84220,521525,278214,21449,0,905408,407
0.064077076,63.45428135,0.905895042,0.959445085,0.630277759,109.8179041,0.340939812,0.598525313,0.42445893,87.12265253,0.688913002,0.489985977,0.370670821,0.82130708,0.114526711,53.63606171,0.979158127,0.884313985,-0.04494159,-6.113508421,90.53396987,124.9359064,43.59351879,83230,776739,478668,47719,69,1386425,408
0.00477832,54.29789041,0.905433734,0.985196148,0.77186084,122.8859144,0.268267493,0.464248562,0.51301418,90.94873309,0.60939043,0.367464678,0.385121577,0.661706894,0.069202234,105.5224083,0.722738409,0.597771996,0.014346525,17.54224169,66.72298942,93.70059071,38.5439611,233,1126936,685698,7484,0,1820351,409
0.014281,60.19414655,0.961884705,0.998508072,0.725297713,121.0981909,0.281934479,0.560475563,0.425295504,86.66009886,0.687221956,0.481507892,0.338279725,0.704481174,0.096899474,87.54049688,0.779728506,0.673190105,0.006664698,9.477896159,89.81877386,122.7649603,41.37527752,101463,1189684,421167,10616,0,1722930,410
-0.011197437,57.11456412,0.992209477,0.993292236,0.719827015,117.1668441,0.296703408,0.496596281,0.504501309,91.7112223,0.639876058,0.375226345,0.408899619,0.696408116,0.072405079,91.86554301,0.758387764,0.682738441,0.026291999,11.00569155,66.44047068,95.67874609,37.92819557,491,962393,1010590,23834,0,1997308,411
-0.015742773,54.45015288,0.962599699,0.992131168,0.734900617,116.8901513,0.283278241,0.460189096,0.561048641,95.5529916,0.552688773,0.356760153,0.443798769,0.678074872,0.064135486,99.21392924,0.738566419,0.656630382,0.029427084,14.24637531,63.96794544,90.9722997,43.65149181,8,521383,1521888,30309,0,2073588,412
-0.009825165,56.37618995,0.97494919,0.994129471,0.734001466,119.6995438,0.304682823,0.488305176,0.521252508,94.33387091,0.625709701,0.383114112,0.413630762,0.679994375,0.072921787,96.84763274,0.74533497,0.647470443,0.025123039,13.49808332,65.97193942,97.68177339,40.29544881,149,901011,1079329,22725,0,2003214,413
-0.018606154,55.59347827,0.989011853,0.993364581,0.705675907,112.5378269,0.262615276,0.495987453,0.53617111,93.39805158,0.606152535,0.341993579,0.442452952,0.716728168,0.065643431,98.77984049,0.765447648,0.720001212,0.032042037,9.972628283,60.59872633,87.20767462,38.02047213,0,463153,1188623,27057,0,1678833,414
0.03045631,60.08006588,0.915808889,0.994156612,0.718859402,116.6796626,0.248390589,0.53969225,0.515660359,92.16847024,0.598136375,0.391122822,0.408555254,0.700753765,0.073650265,84.22000539,0.805342113,0.724386786,-0.006727749,6.478794166,70.75255751,99.7330584,43.30110672,893,913339,1037152,19017,0,1970401,415
0.006076636,55.9941706,0.922587068,0.992419202,0.756562426,120.5788655,0.256368101,0.483592379,0.563524656,94.77912338,0.539246276,0.34993531,0.429598846,0.664227094,0.066969958,106.0165608,0.738721515,0.634825326,0.013311058,14.45348237,63.94977959,89.22728514,43.77899597,305,550294,1112643,10211,0,1673453,416
0.006546178,54.07117891,0.889201073,0.992346709,0.804320133,128.2334796,0.26964166,0.454622599,0.513065918,92.40967187,0.650102638,0.350961104,0.369797633,0.622502158,0.063831287,120.8487793,0.694933691,0.552841533,0.013250841,20.10720655,60.46232824,89.49139209,34.8477479,542,1046354,483118,33,0,1530047,417
0.00124588,55.60991763,0.930663599,0.992430722,0.770362323,121.6321171,0.244022521,0.472092461,0.499295775,91.24226294,0.668005402,0.354878079,0.376807878,0.655556653,0.064686524,107.9937327,0.720827132,0.621003244,0.016901936,15.46606078,61.25220667,90.49153369,33.54101162,0,1078507,518039,2852,0,1599398,418
-0.016563216,54.09380067,0.967416131,0.983836862,0.764327403,122.3545017,0.286592773,0.459666713,0.496918859,90.61171553,0.641534197,0.377939287,0.382351008,0.651527401,0.073460455,127.0052306,0.709958586,0.600638425,0.029559198,17.50918475,67.28648146,96.37342251,36.90789364,7572,764498,507510,1015,0,1280595,419
-0.004105814,53.63139689,0.915862307,0.990311749,0.725586429,113.1848458,0.23391389,0.475740922,0.49970267,90.13778822,0.648267517,0.355022263,0.400579763,0.662512775,0.06180474,104.6336437,0.759772364,0.688457188,0.020919484,13.07707928,62.59506341,90.52723197,34.12729617,1573,829175,798522,1130,0,1630400,420
0.019151753,58.89614659,0.931038206,0.993108979,0.737462314,117.6693711,0.235501021,0.513268221,0.474653679,88.13298919,0.654056705,0.390939799,0.369361402,0.678319619,0.061714697,87.07991231,0.77181101,0.697596573,0.003018466,8.914249969,70.76634369,99.68732909,37.98338831,0,1285651,562574,332,0,1848557,421
-0.018111666,55.51386541,0.988005665,0.991560423,0.767877239,123.0858736,0.284183632,0.463615876,0.490262148,92.64221564,0.68573407,0.387588167,0.376383232,0.651198882,0.065883536,105.8895742,0.705353468,0.606760123,0.030575126,16.31640018,64.45687394,98.83263455,35.38887539,162,1159571,581536,2245,0,1743514,422
-0.014636425,53.08951509,0.935501426,0.993233099,0.777970373,122.1969861,0.256797886,0.445907429,0.402123829,82.67593552,0.763703804,0.408288767,0.309308835,0.622594125,0.068267643,116.63121,0.699464099,0.593278836,0.028037654,18.50311427,76.33433171,104.0882666,28.12980119,53834,1247000,152543,16,0,1453393,423
-0.014269171,52.84800669,0.930946286,0.992661339,0.799121871,125.2678949,0.235388183,0.455044452,0.472070398,87.78188444,0.669541902,0.377352272,0.349284665,0.643694169,0.057765237,101.1383404,0.681590983,0.566142823,0.027525739,20.08048028,67.74504384,96.22284358,33.86292486,4,1656782,415371,23,0,2072180,424
0.031630337,55.93814297,0.843651833,0.99375954,0.813342099,130.872647,0.224699442,0.516485046,0.374436469,81.62163242,0.716191435,0.521712213,0.260922502,0.593661904,0.084649363,109.5373676,0.709212816,0.547144477,-0.00463264,19.39375404,101.776382,132.9741614,38.54716416,423657,1050805,112351,0,0,1586813,425
0.003026172,51.09642786,0.861183744,0.98134487,0.838012638,131.514887,0.230424637,0.447452233,0.524742941,95.11394228,0.61848961,0.392561438,0.364200557,0.595889251,0.072292442,144.3294153,0.663962858,0.509833196,0.015790734,23.9493449,66.59435543,100.101659,39.62767342,10707,887003,428843,0,0,1326553,426
0.030884929,52.00275153,0.785098113,0.988959624,0.876601763,140.1222077,0.237542436,0.468022405,0.560533429,98.82862191,0.561645015,0.404010316,0.365005018,0.575289727,0.070205475,122.3767985,0.655538566,0.465277497,-0.002446262,25.80428994,68.5012198,103.0182263,46.86815124,10864,1201945,580261,0,0,1793070,427
0.0164295,53.20852057,0.846488407,0.991031768,0.830457052,131.1160619,0.215193449,0.478703093,0.516273374,95.07259559,0.615337006,0.420387386,0.358222683,0.580915916,0.057001051,115.6972141,0.681058029,0.526264843,0.006610557,21.99822627,71.15996644,107.1987515,44.15623425,9010,1351200,418177,0,0,1778387,428
0.150802488,60.40617558,0.556428962,0.997933168,0.770479129,133.293024,0.261389729,0.648723286,0.491475522,96.88022436,0.526384748,0.613953999,0.322586589,0.669835751,0.086756007,113.8815163,0.894660156,0.562515747,-0.117116977,16.02057501,108.5913936,156.554108,74.97235991,125861,1028446,276760,1013,0,1432080,429
0.085041887,59.97121229,0.749184631,0.995209912,0.837726625,137.7831058,0.235082817,0.548122403,0.357048862,80.32363179,0.682779944,0.58602383,0.218150371,0.595385561,0.088233829,114.2324767,0.73656336,0.526911737,-0.044838738,18.40046434,118.6624076,149.3283825,49.082324,636518,684236,37592,0,0,1358346,430
0.026067821,50.89940807,0.788034657,0.982085349,0.894480236,141.5815655,0.232442072,0.443809978,0.503209293,93.69162712,0.624809681,0.427092318,0.322410145,0.560442099,0.071056142,141.4792681,0.63840635,0.452128635,0.001158138,26.98692013,74.54964915,108.9084713,43.72622755,42377,1183681,219259,0,0,1445317,431
0.013432787,57.84882297,0.929900038,0.993948651,0.804389327,131.1023194,0.244207079,0.527663596,0.407472486,86.73575873,0.701812721,0.521700646,0.293991671,0.620126557,0.082959028,119.72668,0.700923466,0.559700246,0.008384644,17.62199953,95.31427719,133.0068255,41.77837773,171594,997778,144794,24,0,1314190,432
0.104286227,60.19300899,0.692832269,0.997525865,0.759677218,130.175187,0.243320048,0.64723475,0.380306548,82.60577483,0.616182451,0.626569195,0.251287594,0.692411268,0.121845913,128.929652,0.845907265,0.585863446,-0.070416477,14.73511632,127.1831097,159.1520331,61.96863175,350393,490405,126024,1078,0,967900,433
0.003446649,57.09883362,0.948200979,0.993106301,0.77812117,124.9370096,0.266902374,0.481017609,0.467919106,90.31752468,0.629761312,0.471884217,0.350202219,0.628997892,0.077657932,109.8016426,0.715655395,0.604379458,0.015333387,15.4906379,85.28293802,120.3261188,46.55432008,30665,1055412,402865,325,0,1489267,434
0.116707127,60.33058837,0.657549622,0.997838802,0.761730662,131.8818828,0.225582953,0.68725644,0.506579157,95.97657006,0.486332556,0.594116829,0.352896382,0.667970108,0.066349572,107.3238362,0.859503522,0.573015489,-0.082510187,15.42963839,109.3494424,151.4786947,80.27751636,34362,1169972,360545,388,0,1565267,435
0.044060708,58.32856052,0.846615021,0.99334553,0.800551637,127.0191835,0.218225076,0.497106404,0.4723531,90.2587788,0.632847476,0.454628286,0.331677263,0.61673434,0.078684462,105.2248379,0.732857432,0.59687914,-0.014490217,15.18489894,82.52699182,115.9178102,45.71328333,98703,1163020,308000,10,0,1569733,436
0.071393356,60.19907899,0.79207244,0.997065474,0.820309524,136.9128546,0.235050498,0.585901839,0.437320377,88.55495562,0.601222518,0.563194195,0.288684712,0.615215767,0.094685729,125.138916,0.740269771,0.534454205,-0.035050344,17.82634907,106.6927617,143.58609,57.42218619,223697,842391,150067,3,0,1216158,437
0.001673343,55.59428304,0.930325121,0.991226235,0.836965784,137.4185021,0.280590209,0.498820808,0.516152881,97.08883756,0.587992676,0.481734066,0.359270175,0.599851284,0.070175873,115.0653339,0.663719642,0.501074138,0.016689369,22.14314256,82.11062543,122.840903,53.40628834,23575,1257572,488666,0,0,1769813,438
0.040186901,60.140859,0.884403452,0.997383494,0.775986361,126.059423,0.234835856,0.538195444,0.35618761,78.19796347,0.702483734,0.532949432,0.255895843,0.621467016,0.083702758,111.4168118,0.753466169,0.621979569,-0.01247947,12.59361447,109.1525999,135.8591986,41.75410218,313931,680800,70107,38,0,1064876,439
0.080226998,60.25348166,0.766310123,0.997233577,0.802619734,132.1388983,0.206788203,0.587667565,0.351735218,78.1906515,0.663715674,0.588024691,0.226168869,0.623629568,0.092152427,116.6910589,0.767449577,0.570352123,-0.043770176,15.63429879,123.0445127,149.6599161,52.47575362,512666,581244,57249,10,0,1151169,440
